{
	"info": {
		"_postman_id": "0bf02251-30b4-453d-ba2b-963b5841cbf8",
		"name": "s33",
		"schema": "https://schema.getpostman.com/json/collection/v2.1.0/collection.json",
		"_exporter_id": "22132531"
	},
	"item": [
		{
			"name": "post request",
			"request": {
				"method": "GET",
				"header": []
			},
			"response": []
		},
		{
			"name": "get to do list item",
			"request": {
				"method": "GET",
				"header": []
			},
			"response": []
		},
		{
			"name": "put request",
			"request": {
				"method": "GET",
				"header": []
			},
			"response": []
		},
		{
			"name": "patch",
			"request": {
				"method": "GET",
				"header": []
			},
			"response": []
		},
		{
			"name": "delete to do list item",
			"request": {
				"method": "GET",
				"header": []
			},
			"response": []
		},
		{
			"name": "get req with parameters",
			"request": {
				"method": "GET",
				"header": []
			},
			"response": []
		},
		{
			"name": "get req w embedded comments",
			"request": {
				"method": "GET",
				"header": []
			},
			"response": []
		}
	]
}